[
    {
        "id": "1",
        "cityName": "North and Middle Andaman",
        "stateId": "32"
    },
    {
        "id": "2",
        "cityName": "South Andaman",
        "stateId": "32"
    },
    {
        "id": "3",
        "cityName": "Nicobar",
        "stateId": "32"
    },
    {
        "id": "4",
        "cityName": "Adilabad",
        "stateId": "1"
    },
    {
        "id": "5",
        "cityName": "Anantapur",
        "stateId": "1"
    },
    {
        "id": "6",
        "cityName": "Chittoor",
        "stateId": "1"
    },
    {
        "id": "7",
        "cityName": "East Godavari",
        "stateId": "1"
    },
    {
        "id": "8",
        "cityName": "Guntur",
        "stateId": "1"
    },
    {
        "id": "9",
        "cityName": "Hyderabad",
        "stateId": "1"
    },
    {
        "id": "10",
        "cityName": "Kadapa",
        "stateId": "1"
    },
    {
        "id": "11",
        "cityName": "Karimnagar",
        "stateId": "1"
    },
    {
        "id": "12",
        "cityName": "Khammam",
        "stateId": "1"
    },
    {
        "id": "13",
        "cityName": "Krishna",
        "stateId": "1"
    },
    {
        "id": "14",
        "cityName": "Kurnool",
        "stateId": "1"
    },
    {
        "id": "15",
        "cityName": "Mahbubnagar",
        "stateId": "1"
    },
    {
        "id": "16",
        "cityName": "Medak",
        "stateId": "1"
    },
    {
        "id": "17",
        "cityName": "Nalgonda",
        "stateId": "1"
    },
    {
        "id": "18",
        "cityName": "Nellore",
        "stateId": "1"
    },
    {
        "id": "19",
        "cityName": "Nizamabad",
        "stateId": "1"
    },
    {
        "id": "20",
        "cityName": "Prakasam",
        "stateId": "1"
    },
    {
        "id": "21",
        "cityName": "Rangareddi",
        "stateId": "1"
    },
    {
        "id": "22",
        "cityName": "Srikakulam",
        "stateId": "1"
    },
    {
        "id": "23",
        "cityName": "Vishakhapatnam",
        "stateId": "1"
    },
    {
        "id": "24",
        "cityName": "Vizianagaram",
        "stateId": "1"
    },
    {
        "id": "25",
        "cityName": "Warangal",
        "stateId": "1"
    },
    {
        "id": "26",
        "cityName": "West Godavari",
        "stateId": "1"
    },
    {
        "id": "27",
        "cityName": "Anjaw",
        "stateId": "3"
    },
    {
        "id": "28",
        "cityName": "Changlang",
        "stateId": "3"
    },
    {
        "id": "29",
        "cityName": "East Kameng",
        "stateId": "3"
    },
    {
        "id": "30",
        "cityName": "Lohit",
        "stateId": "3"
    },
    {
        "id": "31",
        "cityName": "Lower Subansiri",
        "stateId": "3"
    },
    {
        "id": "32",
        "cityName": "Papum Pare",
        "stateId": "3"
    },
    {
        "id": "33",
        "cityName": "Tirap",
        "stateId": "3"
    },
    {
        "id": "34",
        "cityName": "Dibang Valley",
        "stateId": "3"
    },
    {
        "id": "35",
        "cityName": "Upper Subansiri",
        "stateId": "3"
    },
    {
        "id": "36",
        "cityName": "West Kameng",
        "stateId": "3"
    },
    {
        "id": "37",
        "cityName": "Barpeta",
        "stateId": "2"
    },
    {
        "id": "38",
        "cityName": "Bongaigaon",
        "stateId": "2"
    },
    {
        "id": "39",
        "cityName": "Cachar",
        "stateId": "2"
    },
    {
        "id": "40",
        "cityName": "Darrang",
        "stateId": "2"
    },
    {
        "id": "41",
        "cityName": "Dhemaji",
        "stateId": "2"
    },
    {
        "id": "42",
        "cityName": "Dhubri",
        "stateId": "2"
    },
    {
        "id": "43",
        "cityName": "Dibrugarh",
        "stateId": "2"
    },
    {
        "id": "44",
        "cityName": "Goalpara",
        "stateId": "2"
    },
    {
        "id": "45",
        "cityName": "Golaghat",
        "stateId": "2"
    },
    {
        "id": "46",
        "cityName": "Hailakandi",
        "stateId": "2"
    },
    {
        "id": "47",
        "cityName": "Jorhat",
        "stateId": "2"
    },
    {
        "id": "48",
        "cityName": "Karbi Anglong",
        "stateId": "2"
    },
    {
        "id": "49",
        "cityName": "Karimganj",
        "stateId": "2"
    },
    {
        "id": "50",
        "cityName": "Kokrajhar",
        "stateId": "2"
    },
    {
        "id": "51",
        "cityName": "Lakhimpur",
        "stateId": "2"
    },
    {
        "id": "52",
        "cityName": "Marigaon",
        "stateId": "2"
    },
    {
        "id": "53",
        "cityName": "Nagaon",
        "stateId": "2"
    },
    {
        "id": "54",
        "cityName": "Nalbari",
        "stateId": "2"
    },
    {
        "id": "55",
        "cityName": "North Cachar Hills",
        "stateId": "2"
    },
    {
        "id": "56",
        "cityName": "Sibsagar",
        "stateId": "2"
    },
    {
        "id": "57",
        "cityName": "Sonitpur",
        "stateId": "2"
    },
    {
        "id": "58",
        "cityName": "Tinsukia",
        "stateId": "2"
    },
    {
        "id": "59",
        "cityName": "Araria",
        "stateId": "4"
    },
    {
        "id": "60",
        "cityName": "Aurangabad",
        "stateId": "4"
    },
    {
        "id": "61",
        "cityName": "Banka",
        "stateId": "4"
    },
    {
        "id": "62",
        "cityName": "Begusarai",
        "stateId": "4"
    },
    {
        "id": "63",
        "cityName": "Bhagalpur",
        "stateId": "4"
    },
    {
        "id": "64",
        "cityName": "Bhojpur",
        "stateId": "4"
    },
    {
        "id": "65",
        "cityName": "Buxar",
        "stateId": "4"
    },
    {
        "id": "66",
        "cityName": "Darbhanga",
        "stateId": "4"
    },
    {
        "id": "67",
        "cityName": "Purba Champaran",
        "stateId": "4"
    },
    {
        "id": "68",
        "cityName": "Gaya",
        "stateId": "4"
    },
    {
        "id": "69",
        "cityName": "Gopalganj",
        "stateId": "4"
    },
    {
        "id": "70",
        "cityName": "Jamui",
        "stateId": "4"
    },
    {
        "id": "71",
        "cityName": "Jehanabad",
        "stateId": "4"
    },
    {
        "id": "72",
        "cityName": "Khagaria",
        "stateId": "4"
    },
    {
        "id": "73",
        "cityName": "Kishanganj",
        "stateId": "4"
    },
    {
        "id": "74",
        "cityName": "Kaimur",
        "stateId": "4"
    },
    {
        "id": "75",
        "cityName": "Katihar",
        "stateId": "4"
    },
    {
        "id": "76",
        "cityName": "Lakhisarai",
        "stateId": "4"
    },
    {
        "id": "77",
        "cityName": "Madhubani",
        "stateId": "4"
    },
    {
        "id": "78",
        "cityName": "Munger",
        "stateId": "4"
    },
    {
        "id": "79",
        "cityName": "Madhepura",
        "stateId": "4"
    },
    {
        "id": "80",
        "cityName": "Muzaffarpur",
        "stateId": "4"
    },
    {
        "id": "81",
        "cityName": "Nalanda",
        "stateId": "4"
    },
    {
        "id": "82",
        "cityName": "Nawada",
        "stateId": "4"
    },
    {
        "id": "83",
        "cityName": "Patna",
        "stateId": "4"
    },
    {
        "id": "84",
        "cityName": "Purnia",
        "stateId": "4"
    },
    {
        "id": "85",
        "cityName": "Rohtas",
        "stateId": "4"
    },
    {
        "id": "86",
        "cityName": "Saharsa",
        "stateId": "4"
    },
    {
        "id": "87",
        "cityName": "Samastipur",
        "stateId": "4"
    },
    {
        "id": "88",
        "cityName": "Sheohar",
        "stateId": "4"
    },
    {
        "id": "89",
        "cityName": "Sheikhpura",
        "stateId": "4"
    },
    {
        "id": "90",
        "cityName": "Saran",
        "stateId": "4"
    },
    {
        "id": "91",
        "cityName": "Sitamarhi",
        "stateId": "4"
    },
    {
        "id": "92",
        "cityName": "Supaul",
        "stateId": "4"
    },
    {
        "id": "93",
        "cityName": "Siwan",
        "stateId": "4"
    },
    {
        "id": "94",
        "cityName": "Vaishali",
        "stateId": "4"
    },
    {
        "id": "95",
        "cityName": "Pashchim Champaran",
        "stateId": "4"
    },
    {
        "id": "96",
        "cityName": "Bastar",
        "stateId": "35"
    },
    {
        "id": "97",
        "cityName": "Bilaspur",
        "stateId": "35"
    },
    {
        "id": "98",
        "cityName": "Dantewada",
        "stateId": "35"
    },
    {
        "id": "99",
        "cityName": "Dhamtari",
        "stateId": "35"
    },
    {
        "id": "100",
        "cityName": "Durg",
        "stateId": "35"
    },
    {
        "id": "101",
        "cityName": "Jashpur",
        "stateId": "35"
    },
    {
        "id": "102",
        "cityName": "Janjgir-Champa",
        "stateId": "35"
    },
    {
        "id": "103",
        "cityName": "Korba",
        "stateId": "35"
    },
    {
        "id": "104",
        "cityName": "Koriya",
        "stateId": "35"
    },
    {
        "id": "105",
        "cityName": "Kanker",
        "stateId": "35"
    },
    {
        "id": "106",
        "cityName": "Kawardha",
        "stateId": "35"
    },
    {
        "id": "107",
        "cityName": "Mahasamund",
        "stateId": "35"
    },
    {
        "id": "108",
        "cityName": "Raigarh",
        "stateId": "35"
    },
    {
        "id": "109",
        "cityName": "Rajnandgaon",
        "stateId": "35"
    },
    {
        "id": "110",
        "cityName": "Raipur",
        "stateId": "35"
    },
    {
        "id": "111",
        "cityName": "Surguja",
        "stateId": "35"
    },
    {
        "id": "112",
        "cityName": "Diu",
        "stateId": "29"
    },
    {
        "id": "113",
        "cityName": "Daman",
        "stateId": "29"
    },
    {
        "id": "114",
        "cityName": "Central Delhi",
        "stateId": "25"
    },
    {
        "id": "115",
        "cityName": "East Delhi",
        "stateId": "25"
    },
    {
        "id": "116",
        "cityName": "New Delhi",
        "stateId": "25"
    },
    {
        "id": "117",
        "cityName": "North Delhi",
        "stateId": "25"
    },
    {
        "id": "118",
        "cityName": "North East Delhi",
        "stateId": "25"
    },
    {
        "id": "119",
        "cityName": "North West Delhi",
        "stateId": "25"
    },
    {
        "id": "120",
        "cityName": "South Delhi",
        "stateId": "25"
    },
    {
        "id": "121",
        "cityName": "South West Delhi",
        "stateId": "25"
    },
    {
        "id": "122",
        "cityName": "West Delhi",
        "stateId": "25"
    },
    {
        "id": "123",
        "cityName": "North Goa",
        "stateId": "26"
    },
    {
        "id": "124",
        "cityName": "South Goa",
        "stateId": "26"
    },
    {
        "id": "125",
        "cityName": "Ahmedabad",
        "stateId": "5"
    },
    {
        "id": "126",
        "cityName": "Amreli District",
        "stateId": "5"
    },
    {
        "id": "127",
        "cityName": "Anand",
        "stateId": "5"
    },
    {
        "id": "128",
        "cityName": "Banaskantha",
        "stateId": "5"
    },
    {
        "id": "129",
        "cityName": "Bharuch",
        "stateId": "5"
    },
    {
        "id": "130",
        "cityName": "Bhavnagar",
        "stateId": "5"
    },
    {
        "id": "131",
        "cityName": "Dahod",
        "stateId": "5"
    },
    {
        "id": "132",
        "cityName": "The Dangs",
        "stateId": "5"
    },
    {
        "id": "133",
        "cityName": "Gandhinagar",
        "stateId": "5"
    },
    {
        "id": "134",
        "cityName": "Jamnagar",
        "stateId": "5"
    },
    {
        "id": "135",
        "cityName": "Junagadh",
        "stateId": "5"
    },
    {
        "id": "136",
        "cityName": "Kutch",
        "stateId": "5"
    },
    {
        "id": "137",
        "cityName": "Kheda",
        "stateId": "5"
    },
    {
        "id": "138",
        "cityName": "Mehsana",
        "stateId": "5"
    },
    {
        "id": "139",
        "cityName": "Narmada",
        "stateId": "5"
    },
    {
        "id": "140",
        "cityName": "Navsari",
        "stateId": "5"
    },
    {
        "id": "141",
        "cityName": "Patan",
        "stateId": "5"
    },
    {
        "id": "142",
        "cityName": "Panchmahal",
        "stateId": "5"
    },
    {
        "id": "143",
        "cityName": "Porbandar",
        "stateId": "5"
    },
    {
        "id": "144",
        "cityName": "Rajkot",
        "stateId": "5"
    },
    {
        "id": "145",
        "cityName": "Sabarkantha",
        "stateId": "5"
    },
    {
        "id": "146",
        "cityName": "Surendranagar",
        "stateId": "5"
    },
    {
        "id": "147",
        "cityName": "Surat",
        "stateId": "5"
    },
    {
        "id": "148",
        "cityName": "Vadodara",
        "stateId": "5"
    },
    {
        "id": "149",
        "cityName": "Valsad",
        "stateId": "5"
    },
    {
        "id": "150",
        "cityName": "Ambala",
        "stateId": "6"
    },
    {
        "id": "151",
        "cityName": "Bhiwani",
        "stateId": "6"
    },
    {
        "id": "152",
        "cityName": "Faridabad",
        "stateId": "6"
    },
    {
        "id": "153",
        "cityName": "Fatehabad",
        "stateId": "6"
    },
    {
        "id": "154",
        "cityName": "Gurgaon",
        "stateId": "6"
    },
    {
        "id": "155",
        "cityName": "Hissar",
        "stateId": "6"
    },
    {
        "id": "156",
        "cityName": "Jhajjar",
        "stateId": "6"
    },
    {
        "id": "157",
        "cityName": "Jind",
        "stateId": "6"
    },
    {
        "id": "158",
        "cityName": "Karnal",
        "stateId": "6"
    },
    {
        "id": "159",
        "cityName": "Kaithal",
        "stateId": "6"
    },
    {
        "id": "160",
        "cityName": "Kurukshetra",
        "stateId": "6"
    },
    {
        "id": "161",
        "cityName": "Mahendragarh",
        "stateId": "6"
    },
    {
        "id": "162",
        "cityName": "Mewat",
        "stateId": "6"
    },
    {
        "id": "163",
        "cityName": "Panchkula",
        "stateId": "6"
    },
    {
        "id": "164",
        "cityName": "Panipat",
        "stateId": "6"
    },
    {
        "id": "165",
        "cityName": "Rewari",
        "stateId": "6"
    },
    {
        "id": "166",
        "cityName": "Rohtak",
        "stateId": "6"
    },
    {
        "id": "167",
        "cityName": "Sirsa",
        "stateId": "6"
    },
    {
        "id": "168",
        "cityName": "Sonepat",
        "stateId": "6"
    },
    {
        "id": "169",
        "cityName": "Yamuna Nagar",
        "stateId": "6"
    },
    {
        "id": "170",
        "cityName": "Palwal",
        "stateId": "6"
    },
    {
        "id": "171",
        "cityName": "Bilaspur",
        "stateId": "7"
    },
    {
        "id": "172",
        "cityName": "Chamba",
        "stateId": "7"
    },
    {
        "id": "173",
        "cityName": "Hamirpur",
        "stateId": "7"
    },
    {
        "id": "174",
        "cityName": "Kangra",
        "stateId": "7"
    },
    {
        "id": "175",
        "cityName": "Kinnaur",
        "stateId": "7"
    },
    {
        "id": "176",
        "cityName": "Kulu",
        "stateId": "7"
    },
    {
        "id": "177",
        "cityName": "Lahaul and Spiti",
        "stateId": "7"
    },
    {
        "id": "178",
        "cityName": "Mandi",
        "stateId": "7"
    },
    {
        "id": "179",
        "cityName": "Shimla",
        "stateId": "7"
    },
    {
        "id": "180",
        "cityName": "Sirmaur",
        "stateId": "7"
    },{
        "id": "181",
        "cityName": "Solan",
        "stateId": "7"
    },
    {
        "id": "182",
        "cityName": "Una",
        "stateId": "7"
    },
    {
        "id": "183",
        "cityName": "Anantnag",
        "stateId": "8"
    },
    {
        "id": "184",
        "cityName": "Badgam",
        "stateId": "8"
    },
    {
        "id": "185",
        "cityName": "Bandipore",
        "stateId": "8"
    },
    {
        "id": "186",
        "cityName": "Baramula",
        "stateId": "8"
    },
    {
        "id": "187",
        "cityName": "Doda",
        "stateId": "8"
    },
    {
        "id": "188",
        "cityName": "Jammu",
        "stateId": "8"
    },
    {
        "id": "189",
        "cityName": "Kargil",
        "stateId": "8"
    },
    {
        "id": "190",
        "cityName": "Kathua",
        "stateId": "8"
    },
    {
        "id": "191",
        "cityName": "Kupwara",
        "stateId": "8"
    },
    {
        "id": "192",
        "cityName": "Leh",
        "stateId": "8"
    },
    {
        "id": "193",
        "cityName": "Poonch",
        "stateId": "8"
    },
    {
        "id": "194",
        "cityName": "Pulwama",
        "stateId": "8"
    },
    {
        "id": "195",
        "cityName": "Rajauri",
        "stateId": "8"
    },
    {
        "id": "196",
        "cityName": "Srinagar",
        "stateId": "8"
    },
    {
        "id": "197",
        "cityName": "Samba",
        "stateId": "8"
    },
    {
        "id": "198",
        "cityName": "Udhampur",
        "stateId": "8"
    },
    {
        "id": "199",
        "cityName": "Bokaro",
        "stateId": "34"
    },
    {
        "id": "200",
        "cityName": "Chatra",
        "stateId": "34"
    },
    {
        "id": "201",
        "cityName": "Deoghar",
        "stateId": "34"
    },
    {
        "id": "202",
        "cityName": "Dhanbad",
        "stateId": "34"
    },
    {
        "id": "203",
        "cityName": "Dumka",
        "stateId": "34"
    },
    {
        "id": "204",
        "cityName": "Purba Singhbhum",
        "stateId": "34"
    },
    {
        "id": "205",
        "cityName": "Garhwa",
        "stateId": "34"
    },
    {
        "id": "206",
        "cityName": "Giridih",
        "stateId": "34"
    },
    {
        "id": "207",
        "cityName": "Godda",
        "stateId": "34"
    },
    {
        "id": "208",
        "cityName": "Gumla",
        "stateId": "34"
    },
    {
        "id": "209",
        "cityName": "Hazaribagh",
        "stateId": "34"
    },
    {
        "id": "210",
        "cityName": "Koderma",
        "stateId": "34"
    },
    {
        "id": "211",
        "cityName": "Lohardaga",
        "stateId": "34"
    },
    {
        "id": "212",
        "cityName": "Pakur",
        "stateId": "34"
    },
    {
        "id": "213",
        "cityName": "Palamu",
        "stateId": "34"
    },
    {
        "id": "214",
        "cityName": "Ranchi",
        "stateId": "34"
    },
    {
        "id": "215",
        "cityName": "Sahibganj",
        "stateId": "34"
    },
    {
        "id": "216",
        "cityName": "Seraikela and Kharsawan",
        "stateId": "34"
    },
    {
        "id": "217",
        "cityName": "Pashchim Singhbhum",
        "stateId": "34"
    },
    {
        "id": "218",
        "cityName": "Ramgarh",
        "stateId": "34"
    },
    {
        "id": "219",
        "cityName": "Bidar",
        "stateId": "9"
    },
    {
        "id": "220",
        "cityName": "Belgaum",
        "stateId": "9"
    },
    {
        "id": "221",
        "cityName": "Bijapur",
        "stateId": "9"
    },
    {
        "id": "222",
        "cityName": "Bagalkot",
        "stateId": "9"
    },
    {
        "id": "223",
        "cityName": "Bellary",
        "stateId": "9"
    },
    {
        "id": "224",
        "cityName": "Bangalore Rural District",
        "stateId": "9"
    },
    {
        "id": "225",
        "cityName": "Bangalore Urban District",
        "stateId": "9"
    },
    {
        "id": "226",
        "cityName": "Chamarajnagar",
        "stateId": "9"
    },
    {
        "id": "227",
        "cityName": "Chikmagalur",
        "stateId": "9"
    },
    {
        "id": "228",
        "cityName": "Chitradurga",
        "stateId": "9"
    },
    {
        "id": "229",
        "cityName": "Davanagere",
        "stateId": "9"
    },
    {
        "id": "230",
        "cityName": "Dharwad",
        "stateId": "9"
    },
    {
        "id": "231",
        "cityName": "Dakshina Kannada",
        "stateId": "9"
    },
    {
        "id": "232",
        "cityName": "Gadag",
        "stateId": "9"
    },
    {
        "id": "233",
        "cityName": "Gulbarga",
        "stateId": "9"
    },
    {
        "id": "234",
        "cityName": "Hassan",
        "stateId": "9"
    },
    {
        "id": "235",
        "cityName": "Haveri District",
        "stateId": "9"
    },
    {
        "id": "236",
        "cityName": "Kodagu",
        "stateId": "9"
    },
    {
        "id": "237",
        "cityName": "Kolar",
        "stateId": "9"
    },
    {
        "id": "238",
        "cityName": "Koppal",
        "stateId": "9"
    },
    {
        "id": "239",
        "cityName": "Mandya",
        "stateId": "9"
    },
    {
        "id": "240",
        "cityName": "Mysore",
        "stateId": "9"
    },
    {
        "id": "241",
        "cityName": "Raichur",
        "stateId": "9"
    },
    {
        "id": "242",
        "cityName": "Shimoga",
        "stateId": "9"
    },
    {
        "id": "243",
        "cityName": "Tumkur",
        "stateId": "9"
    },
    {
        "id": "244",
        "cityName": "Udupi",
        "stateId": "9"
    },
    {
        "id": "245",
        "cityName": "Uttara Kannada",
        "stateId": "9"
    },
    {
        "id": "246",
        "cityName": "Ramanagara",
        "stateId": "9"
    },
    {
        "id": "247",
        "cityName": "Chikballapur",
        "stateId": "9"
    },
    {
        "id": "248",
        "cityName": "Yadagiri",
        "stateId": "9"
    },
    {
        "id": "249",
        "cityName": "Alappuzha",
        "stateId": "10"
    },
    {
        "id": "250",
        "cityName": "Ernakulam",
        "stateId": "10"
    },
    {
        "id": "251",
        "cityName": "Idukki",
        "stateId": "10"
    },
    {
        "id": "252",
        "cityName": "Kollam",
        "stateId": "10"
    },
    {
        "id": "253",
        "cityName": "Kannur",
        "stateId": "10"
    },
    {
        "id": "254",
        "cityName": "Kasaragod",
        "stateId": "10"
    },
    {
        "id": "255",
        "cityName": "Kottayam",
        "stateId": "10"
    },
    {
        "id": "256",
        "cityName": "Kozhikode",
        "stateId": "10"
    },
    {
        "id": "257",
        "cityName": "Malappuram",
        "stateId": "10"
    },
    {
        "id": "258",
        "cityName": "Palakkad",
        "stateId": "10"
    },
    {
        "id": "259",
        "cityName": "Pathanamthitta",
        "stateId": "10"
    },
    {
        "id": "260",
        "cityName": "Thrissur",
        "stateId": "10"
    },
    {
        "id": "261",
        "cityName": "Thiruvananthapuram",
        "stateId": "10"
    },
    {
        "id": "262",
        "cityName": "Wayanad",
        "stateId": "10"
    },
    {
        "id": "263",
        "cityName": "Alirajpur",
        "stateId": "11"
    },
    {
        "id": "264",
        "cityName": "Anuppur",
        "stateId": "11"
    },
    {
        "id": "265",
        "cityName": "Ashok Nagar",
        "stateId": "11"
    },
    {
        "id": "266",
        "cityName": "Balaghat",
        "stateId": "11"
    },
    {
        "id": "267",
        "cityName": "Barwani",
        "stateId": "11"
    },
    {
        "id": "268",
        "cityName": "Betul",
        "stateId": "11"
    },
    {
        "id": "269",
        "cityName": "Bhind",
        "stateId": "11"
    },
    {
        "id": "270",
        "cityName": "Bhopal",
        "stateId": "11"
    },
    {
        "id": "271",
        "cityName": "Burhanpur",
        "stateId": "11"
    },
    {
        "id": "272",
        "cityName": "Chhatarpur",
        "stateId": "11"
    },
    {
        "id": "273",
        "cityName": "Chhindwara",
        "stateId": "11"
    },
    {
        "id": "274",
        "cityName": "Damoh",
        "stateId": "11"
    },
    {
        "id": "275",
        "cityName": "Datia",
        "stateId": "11"
    },
    {
        "id": "276",
        "cityName": "Dewas",
        "stateId": "11"
    },
    {
        "id": "277",
        "cityName": "Dhar",
        "stateId": "11"
    },
    {
        "id": "278",
        "cityName": "Dindori",
        "stateId": "11"
    },
    {
        "id": "279",
        "cityName": "Guna",
        "stateId": "11"
    },
    {
        "id": "280",
        "cityName": "Gwalior",
        "stateId": "11"
    },
    {
        "id": "281",
        "cityName": "Harda",
        "stateId": "11"
    },
    {
        "id": "282",
        "cityName": "Hoshangabad",
        "stateId": "11"
    },
    {
        "id": "283",
        "cityName": "Indore",
        "stateId": "11"
    },
    {
        "id": "284",
        "cityName": "Jabalpur",
        "stateId": "11"
    },
    {
        "id": "285",
        "cityName": "Jhabua",
        "stateId": "11"
    },
    {
        "id": "286",
        "cityName": "Katni",
        "stateId": "11"
    },
    {
        "id": "287",
        "cityName": "Khandwa",
        "stateId": "11"
    },
    {
        "id": "288",
        "cityName": "Khargone",
        "stateId": "11"
    },
    {
        "id": "289",
        "cityName": "Mandla",
        "stateId": "11"
    },
    {
        "id": "290",
        "cityName": "Mandsaur",
        "stateId": "11"
    },
    {
        "id": "291",
        "cityName": "Morena",
        "stateId": "11"
    },
    {
        "id": "292",
        "cityName": "Narsinghpur",
        "stateId": "11"
    },
    {
        "id": "293",
        "cityName": "Neemuch",
        "stateId": "11"
    },
    {
        "id": "294",
        "cityName": "Panna",
        "stateId": "11"
    },
    {
        "id": "295",
        "cityName": "Rewa",
        "stateId": "11"
    },
    {
        "id": "296",
        "cityName": "Rajgarh",
        "stateId": "11"
    },
    {
        "id": "297",
        "cityName": "Ratlam",
        "stateId": "11"
    },
    {
        "id": "298",
        "cityName": "Raisen",
        "stateId": "11"
    },
    {
        "id": "299",
        "cityName": "Sagar",
        "stateId": "11"
    },
    {
        "id": "300",
        "cityName": "Satna",
        "stateId": "11"
    },
    {
        "id": "301",
        "cityName": "Sehore",
        "stateId": "11"
    },
    {
        "id": "302",
        "cityName": "Seoni",
        "stateId": "11"
    },
    {
        "id": "303",
        "cityName": "Shahdol",
        "stateId": "11"
    },
    {
        "id": "304",
        "cityName": "Shajapur",
        "stateId": "11"
    },
    {
        "id": "305",
        "cityName": "Sheopur",
        "stateId": "11"
    },
    {
        "id": "306",
        "cityName": "Shivpuri",
        "stateId": "11"
    },
    {
        "id": "307",
        "cityName": "Sidhi",
        "stateId": "11"
    },
    {
        "id": "308",
        "cityName": "Singrauli",
        "stateId": "11"
    },
    {
        "id": "309",
        "cityName": "Tikamgarh",
        "stateId": "11"
    },
    {
        "id": "310",
        "cityName": "Ujjain",
        "stateId": "11"
    },
    {
        "id": "311",
        "cityName": "Umaria",
        "stateId": "11"
    },
    {
        "id": "312",
        "cityName": "Vidisha",
        "stateId": "11"
    },
    {
        "id": "313",
        "cityName": "Ahmednagar",
        "stateId": "12"
    },
    {
        "id": "314",
        "cityName": "Akola",
        "stateId": "12"
    },
    {
        "id": "315",
        "cityName": "Amrawati",
        "stateId": "12"
    },
    {
        "id": "316",
        "cityName": "Aurangabad",
        "stateId": "12"
    },
    {
        "id": "317",
        "cityName": "Bhandara",
        "stateId": "12"
    },
    {
        "id": "318",
        "cityName": "Beed",
        "stateId": "12"
    },
    {
        "id": "319",
        "cityName": "Buldhana",
        "stateId": "12"
    },
    {
        "id": "320",
        "cityName": "Chandrapur",
        "stateId": "12"
    },
    {
        "id": "321",
        "cityName": "Dhule",
        "stateId": "12"
    },
    {
        "id": "322",
        "cityName": "Gadchiroli",
        "stateId": "12"
    },
    {
        "id": "323",
        "cityName": "Gondiya",
        "stateId": "12"
    },
    {
        "id": "324",
        "cityName": "Hingoli",
        "stateId": "12"
    },
    {
        "id": "325",
        "cityName": "Jalgaon",
        "stateId": "12"
    },
    {
        "id": "326",
        "cityName": "Jalna",
        "stateId": "12"
    },
    {
        "id": "327",
        "cityName": "Kolhapur",
        "stateId": "12"
    },
    {
        "id": "328",
        "cityName": "Latur",
        "stateId": "12"
    },
    {
        "id": "329",
        "cityName": "Mumbai City",
        "stateId": "12"
    },
    {
        "id": "330",
        "cityName": "Mumbai suburban",
        "stateId": "12"
    },
    {
        "id": "331",
        "cityName": "Nandurbar",
        "stateId": "12"
    },
    {
        "id": "332",
        "cityName": "Nanded",
        "stateId": "12"
    },
    {
        "id": "333",
        "cityName": "Nagpur",
        "stateId": "12"
    },
    {
        "id": "334",
        "cityName": "Nashik",
        "stateId": "12"
    },
    {
        "id": "335",
        "cityName": "Osmanabad",
        "stateId": "12"
    },
    {
        "id": "336",
        "cityName": "Parbhani",
        "stateId": "12"
    },
    {
        "id": "337",
        "cityName": "Pune",
        "stateId": "12"
    },
    {
        "id": "338",
        "cityName": "Raigad",
        "stateId": "12"
    },
    {
        "id": "339",
        "cityName": "Ratnagiri",
        "stateId": "12"
    },
    {
        "id": "340",
        "cityName": "Sindhudurg",
        "stateId": "12"
    },
    {
        "id": "341",
        "cityName": "Sangli",
        "stateId": "12"
    },
    {
        "id": "342",
        "cityName": "Solapur",
        "stateId": "12"
    },
    {
        "id": "343",
        "cityName": "Satara",
        "stateId": "12"
    },
    {
        "id": "344",
        "cityName": "Thane",
        "stateId": "12"
    },
    {
        "id": "345",
        "cityName": "Wardha",
        "stateId": "12"
    },
    {
        "id": "346",
        "cityName": "Washim",
        "stateId": "12"
    },
    {
        "id": "347",
        "cityName": "Yavatmal",
        "stateId": "12"
    },
    {
        "id": "348",
        "cityName": "Bishnupur",
        "stateId": "13"
    },
    {
        "id": "349",
        "cityName": "Churachandpur",
        "stateId": "13"
    },
    {
        "id": "350",
        "cityName": "Chandel",
        "stateId": "13"
    },
    {
        "id": "351",
        "cityName": "Imphal East",
        "stateId": "13"
    },
    {
        "id": "352",
        "cityName": "Senapati",
        "stateId": "13"
    },
    {
        "id": "353",
        "cityName": "Tamenglong",
        "stateId": "13"
    },
    {
        "id": "354",
        "cityName": "Thoubal",
        "stateId": "13"
    },
    {
        "id": "355",
        "cityName": "Ukhrul",
        "stateId": "13"
    },
    {
        "id": "356",
        "cityName": "Imphal West",
        "stateId": "13"
    },
    {
        "id": "357",
        "cityName": "East Garo Hills",
        "stateId": "14"
    },
    {
        "id": "358",
        "cityName": "East Khasi Hills",
        "stateId": "14"
    },
    {
        "id": "359",
        "cityName": "Jaintia Hills",
        "stateId": "14"
    },
    {
        "id": "360",
        "cityName": "Ri-Bhoi",
        "stateId": "14"
    },
    {
        "id": "361",
        "cityName": "South Garo Hills",
        "stateId": "14"
    },
    {
        "id": "362",
        "cityName": "West Garo Hills",
        "stateId": "14"
    },
    {
        "id": "363",
        "cityName": "West Khasi Hills",
        "stateId": "14"
    },
    {
        "id": "364",
        "cityName": "Aizawl",
        "stateId": "15"
    },
    {
        "id": "365",
        "cityName": "Champhai",
        "stateId": "15"
    },
    {
        "id": "366",
        "cityName": "Kolasib",
        "stateId": "15"
    },
    {
        "id": "367",
        "cityName": "Lawngtlai",
        "stateId": "15"
    },
    {
        "id": "368",
        "cityName": "Lunglei",
        "stateId": "15"
    },
    {
        "id": "369",
        "cityName": "Mamit",
        "stateId": "15"
    },
    {
        "id": "370",
        "cityName": "Saiha",
        "stateId": "15"
    },
    {
        "id": "371",
        "cityName": "Serchhip",
        "stateId": "15"
    },
    {
        "id": "372",
        "cityName": "Dimapur",
        "stateId": "16"
    },
    {
        "id": "373",
        "cityName": "Kohima",
        "stateId": "16"
    },
    {
        "id": "374",
        "cityName": "Mokokchung",
        "stateId": "16"
    },
    {
        "id": "375",
        "cityName": "Mon",
        "stateId": "16"
    },
    {
        "id": "376",
        "cityName": "Phek",
        "stateId": "16"
    },
    {
        "id": "377",
        "cityName": "Tuensang",
        "stateId": "16"
    },
    {
        "id": "378",
        "cityName": "Wokha",
        "stateId": "16"
    },
    {
        "id": "379",
        "cityName": "Zunheboto",
        "stateId": "16"
    },
    {
        "id": "380",
        "cityName": "Angul",
        "stateId": "17"
    },
    {
        "id": "381",
        "cityName": "Boudh",
        "stateId": "17"
    },
    {
        "id": "382",
        "cityName": "Bhadrak",
        "stateId": "17"
    },
    {
        "id": "383",
        "cityName": "Bolangir",
        "stateId": "17"
    },
    {
        "id": "384",
        "cityName": "Bargarh",
        "stateId": "17"
    },
    {
        "id": "385",
        "cityName": "Baleswar",
        "stateId": "17"
    },
    {
        "id": "386",
        "cityName": "Cuttack",
        "stateId": "17"
    },
    {
        "id": "387",
        "cityName": "Debagarh",
        "stateId": "17"
    },
    {
        "id": "388",
        "cityName": "Dhenkanal",
        "stateId": "17"
    },
    {
        "id": "389",
        "cityName": "Ganjam",
        "stateId": "17"
    },
    {
        "id": "390",
        "cityName": "Gajapati",
        "stateId": "17"
    },
    {
        "id": "391",
        "cityName": "Jharsuguda",
        "stateId": "17"
    },
    {
        "id": "392",
        "cityName": "Jajapur",
        "stateId": "17"
    },
    {
        "id": "393",
        "cityName": "Jagatsinghpur",
        "stateId": "17"
    },
    {
        "id": "394",
        "cityName": "Khordha",
        "stateId": "17"
    },
    {
        "id": "395",
        "cityName": "Kendujhar",
        "stateId": "17"
    },
    {
        "id": "396",
        "cityName": "Kalahandi",
        "stateId": "17"
    },
    {
        "id": "397",
        "cityName": "Kandhamal",
        "stateId": "17"
    },
    {
        "id": "398",
        "cityName": "Koraput",
        "stateId": "17"
    },
    {
        "id": "399",
        "cityName": "Kendrapara",
        "stateId": "17"
    },
    {
        "id": "400",
        "cityName": "Malkangiri",
        "stateId": "17"
    },
    {
        "id": "401",
        "cityName": "Mayurbhanj",
        "stateId": "17"
    },
    {
        "id": "402",
        "cityName": "Nabarangpur",
        "stateId": "17"
    },
    {
        "id": "403",
        "cityName": "Nuapada",
        "stateId": "17"
    },
    {
        "id": "404",
        "cityName": "Nayagarh",
        "stateId": "17"
    },
    {
        "id": "405",
        "cityName": "Puri",
        "stateId": "17"
    },
    {
        "id": "406",
        "cityName": "Rayagada",
        "stateId": "17"
    },
    {
        "id": "407",
        "cityName": "Sambalpur",
        "stateId": "17"
    },
    {
        "id": "408",
        "cityName": "Subarnapur",
        "stateId": "17"
    },
    {
        "id": "409",
        "cityName": "Sundargarh",
        "stateId": "17"
    },
    {
        "id": "410",
        "cityName": "Karaikal",
        "stateId": "27"
    },
    {
        "id": "411",
        "cityName": "Mahe",
        "stateId": "27"
    },
    {
        "id": "412",
        "cityName": "Puducherry",
        "stateId": "27"
    },
    {
        "id": "413",
        "cityName": "Yanam",
        "stateId": "27"
    },
    {
        "id": "414",
        "cityName": "Amritsar",
        "stateId": "18"
    },
    {
        "id": "415",
        "cityName": "Bathinda",
        "stateId": "18"
    },
    {
        "id": "416",
        "cityName": "Firozpur",
        "stateId": "18"
    },
    {
        "id": "417",
        "cityName": "Faridkot",
        "stateId": "18"
    },
    {
        "id": "418",
        "cityName": "Fatehgarh Sahib",
        "stateId": "18"
    },
    {
        "id": "419",
        "cityName": "Gurdaspur",
        "stateId": "18"
    },
    {
        "id": "420",
        "cityName": "Hoshiarpur",
        "stateId": "18"
    },
    {
        "id": "421",
        "cityName": "Jalandhar",
        "stateId": "18"
    },
    {
        "id": "422",
        "cityName": "Kapurthala",
        "stateId": "18"
    },
    {
        "id": "423",
        "cityName": "Ludhiana",
        "stateId": "18"
    },
    {
        "id": "424",
        "cityName": "Mansa",
        "stateId": "18"
    },
    {
        "id": "425",
        "cityName": "Moga",
        "stateId": "18"
    },
    {
        "id": "426",
        "cityName": "Mukatsar",
        "stateId": "18"
    },
    {
        "id": "427",
        "cityName": "Nawan Shehar",
        "stateId": "18"
    },
    {
        "id": "428",
        "cityName": "Patiala",
        "stateId": "18"
    },
    {
        "id": "429",
        "cityName": "Rupnagar",
        "stateId": "18"
    },
    {
        "id": "430",
        "cityName": "Sangrur",
        "stateId": "18"
    },
    {
        "id": "431",
        "cityName": "Ajmer",
        "stateId": "19"
    },
    {
        "id": "432",
        "cityName": "Alwar",
        "stateId": "19"
    },
    {
        "id": "433",
        "cityName": "Bikaner",
        "stateId": "19"
    },
    {
        "id": "434",
        "cityName": "Barmer",
        "stateId": "19"
    },
    {
        "id": "435",
        "cityName": "Banswara",
        "stateId": "19"
    },
    {
        "id": "436",
        "cityName": "Bharatpur",
        "stateId": "19"
    },
    {
        "id": "437",
        "cityName": "Baran",
        "stateId": "19"
    },
    {
        "id": "438",
        "cityName": "Bundi",
        "stateId": "19"
    },
    {
        "id": "439",
        "cityName": "Bhilwara",
        "stateId": "19"
    },
    {
        "id": "440",
        "cityName": "Churu",
        "stateId": "19"
    },
    {
        "id": "441",
        "cityName": "Chittorgarh",
        "stateId": "19"
    },
    {
        "id": "442",
        "cityName": "Dausa",
        "stateId": "19"
    },
    {
        "id": "443",
        "cityName": "Dholpur",
        "stateId": "19"
    },
    {
        "id": "444",
        "cityName": "Dungapur",
        "stateId": "19"
    },
    {
        "id": "445",
        "cityName": "Ganganagar",
        "stateId": "19"
    },
    {
        "id": "446",
        "cityName": "Hanumangarh",
        "stateId": "19"
    },
    {
        "id": "447",
        "cityName": "Juhnjhunun",
        "stateId": "19"
    },
    {
        "id": "448",
        "cityName": "Jalore",
        "stateId": "19"
    },
    {
        "id": "449",
        "cityName": "Jodhpur",
        "stateId": "19"
    },
    {
        "id": "450",
        "cityName": "Jaipur",
        "stateId": "19"
    },
    {
        "id": "451",
        "cityName": "Jaisalmer",
        "stateId": "19"
    },
    {
        "id": "452",
        "cityName": "Jhalawar",
        "stateId": "19"
    },
    {
        "id": "453",
        "cityName": "Karauli",
        "stateId": "19"
    },
    {
        "id": "454",
        "cityName": "Kota",
        "stateId": "19"
    },
    {
        "id": "455",
        "cityName": "Nagaur",
        "stateId": "19"
    },
    {
        "id": "456",
        "cityName": "Pali",
        "stateId": "19"
    },
    {
        "id": "457",
        "cityName": "Pratapgarh",
        "stateId": "19"
    },
    {
        "id": "458",
        "cityName": "Rajsamand",
        "stateId": "19"
    },
    {
        "id": "459",
        "cityName": "Sikar",
        "stateId": "19"
    },
    {
        "id": "460",
        "cityName": "Sawai Madhopur",
        "stateId": "19"
    },
    {
        "id": "461",
        "cityName": "Sirohi",
        "stateId": "19"
    },
    {
        "id": "462",
        "cityName": "Tonk",
        "stateId": "19"
    },
    {
        "id": "463",
        "cityName": "Udaipur",
        "stateId": "19"
    },
    {
        "id": "464",
        "cityName": "East Sikkim",
        "stateId": "20"
    },
    {
        "id": "465",
        "cityName": "North Sikkim",
        "stateId": "20"
    },
    {
        "id": "466",
        "cityName": "South Sikkim",
        "stateId": "20"
    },
    {
        "id": "467",
        "cityName": "West Sikkim",
        "stateId": "20"
    },
    {
        "id": "468",
        "cityName": "Ariyalur",
        "stateId": "21"
    },
    {
        "id": "469",
        "cityName": "Chennai",
        "stateId": "21"
    },
    {
        "id": "470",
        "cityName": "Coimbatore",
        "stateId": "21"
    },
    {
        "id": "471",
        "cityName": "Cuddalore",
        "stateId": "21"
    },
    {
        "id": "472",
        "cityName": "Dharmapuri",
        "stateId": "21"
    },
    {
        "id": "473",
        "cityName": "Dindigul",
        "stateId": "21"
    },
    {
        "id": "474",
        "cityName": "Erode",
        "stateId": "21"
    },
    {
        "id": "475",
        "cityName": "Kanchipuram",
        "stateId": "21"
    },
    {
        "id": "476",
        "cityName": "Kanyakumari",
        "stateId": "21"
    },
    {
        "id": "477",
        "cityName": "Karur",
        "stateId": "21"
    },
    {
        "id": "478",
        "cityName": "Madurai",
        "stateId": "21"
    },
    {
        "id": "479",
        "cityName": "Nagapattinam",
        "stateId": "21"
    },
    {
        "id": "480",
        "cityName": "The Nilgiris",
        "stateId": "21"
    },
    {
        "id": "481",
        "cityName": "Namakkal",
        "stateId": "21"
    },
    {
        "id": "482",
        "cityName": "Perambalur",
        "stateId": "21"
    },
    {
        "id": "483",
        "cityName": "Pudukkottai",
        "stateId": "21"
    },
    {
        "id": "484",
        "cityName": "Ramanathapuram",
        "stateId": "21"
    },
    {
        "id": "485",
        "cityName": "Salem",
        "stateId": "21"
    },
    {
        "id": "486",
        "cityName": "Sivagangai",
        "stateId": "21"
    },
    {
        "id": "487",
        "cityName": "Tiruppur",
        "stateId": "21"
    },
    {
        "id": "488",
        "cityName": "Tiruchirappalli",
        "stateId": "21"
    },
    {
        "id": "489",
        "cityName": "Theni",
        "stateId": "21"
    },
    {
        "id": "490",
        "cityName": "Tirunelveli",
        "stateId": "21"
    },
    {
        "id": "491",
        "cityName": "Thanjavur",
        "stateId": "21"
    },
    {
        "id": "492",
        "cityName": "Thoothukudi",
        "stateId": "21"
    },
    {
        "id": "493",
        "cityName": "Thiruvallur",
        "stateId": "21"
    },
    {
        "id": "494",
        "cityName": "Thiruvarur",
        "stateId": "21"
    },
    {
        "id": "495",
        "cityName": "Tiruvannamalai",
        "stateId": "21"
    },
    {
        "id": "496",
        "cityName": "Vellore",
        "stateId": "21"
    },
    {
        "id": "497",
        "cityName": "Villupuram",
        "stateId": "21"
    },
    {
        "id": "498",
        "cityName": "Dhalai",
        "stateId": "22"
    },
    {
        "id": "499",
        "cityName": "North Tripura",
        "stateId": "22"
    },
    {
        "id": "500",
        "cityName": "South Tripura",
        "stateId": "22"
    },
    {
        "id": "501",
        "cityName": "West Tripura",
        "stateId": "22"
    },
    {
        "id": "502",
        "cityName": "Almora",
        "stateId": "33"
    },
    {
        "id": "503",
        "cityName": "Bageshwar",
        "stateId": "33"
    },
    {
        "id": "504",
        "cityName": "Chamoli",
        "stateId": "33"
    },
    {
        "id": "505",
        "cityName": "Champawat",
        "stateId": "33"
    },
    {
        "id": "506",
        "cityName": "Dehradun",
        "stateId": "33"
    },
    {
        "id": "507",
        "cityName": "Haridwar",
        "stateId": "33"
    },
    {
        "id": "508",
        "cityName": "Nainital",
        "stateId": "33"
    },
    {
        "id": "509",
        "cityName": "Pauri Garhwal",
        "stateId": "33"
    },
    {
        "id": "510",
        "cityName": "Pithoragharh",
        "stateId": "33"
    },
    {
        "id": "511",
        "cityName": "Rudraprayag",
        "stateId": "33"
    },
    {
        "id": "512",
        "cityName": "Tehri Garhwal",
        "stateId": "33"
    },
    {
        "id": "513",
        "cityName": "Udham Singh Nagar",
        "stateId": "33"
    },
    {
        "id": "514",
        "cityName": "Uttarkashi",
        "stateId": "33"
    },
    {
        "id": "515",
        "cityName": "Agra",
        "stateId": "23"
    },
    {
        "id": "516",
        "cityName": "Allahabad",
        "stateId": "23"
    },
    {
        "id": "517",
        "cityName": "Aligarh",
        "stateId": "23"
    },
    {
        "id": "518",
        "cityName": "Ambedkar Nagar",
        "stateId": "23"
    },
    {
        "id": "519",
        "cityName": "Auraiya",
        "stateId": "23"
    },
    {
        "id": "520",
        "cityName": "Azamgarh",
        "stateId": "23"
    },
    {
        "id": "521",
        "cityName": "Barabanki",
        "stateId": "23"
    },
    {
        "id": "522",
        "cityName": "Badaun",
        "stateId": "23"
    },
    {
        "id": "523",
        "cityName": "Bagpat",
        "stateId": "23"
    },
    {
        "id": "524",
        "cityName": "Bahraich",
        "stateId": "23"
    },
    {
        "id": "525",
        "cityName": "Bijnor",
        "stateId": "23"
    },
    {
        "id": "526",
        "cityName": "Ballia",
        "stateId": "23"
    },
    {
        "id": "527",
        "cityName": "Banda",
        "stateId": "23"
    },
    {
        "id": "528",
        "cityName": "Balrampur",
        "stateId": "23"
    },
    {
        "id": "529",
        "cityName": "Bareilly",
        "stateId": "23"
    },
    {
        "id": "530",
        "cityName": "Basti",
        "stateId": "23"
    },
    {
        "id": "531",
        "cityName": "Bulandshahr",
        "stateId": "23"
    },
    {
        "id": "532",
        "cityName": "Chandauli",
        "stateId": "23"
    },
    {
        "id": "533",
        "cityName": "Chitrakoot",
        "stateId": "23"
    },
    {
        "id": "534",
        "cityName": "Deoria",
        "stateId": "23"
    },
    {
        "id": "535",
        "cityName": "Etah",
        "stateId": "23"
    },
    {
        "id": "536",
        "cityName": "Kanshiram Nagar",
        "stateId": "23"
    },
    {
        "id": "537",
        "cityName": "Etawah",
        "stateId": "23"
    },
    {
        "id": "538",
        "cityName": "Firozabad",
        "stateId": "23"
    },
    {
        "id": "539",
        "cityName": "Farrukhabad",
        "stateId": "23"
    },
    {
        "id": "540",
        "cityName": "Fatehpur",
        "stateId": "23"
    },
    {
        "id": "541",
        "cityName": "Faizabad",
        "stateId": "23"
    },
    {
        "id": "542",
        "cityName": "Gautam Buddha Nagar",
        "stateId": "23"
    },
    {
        "id": "543",
        "cityName": "Gonda",
        "stateId": "23"
    },
    {
        "id": "544",
        "cityName": "Ghazipur",
        "stateId": "23"
    },
    {
        "id": "545",
        "cityName": "Gorkakhpur",
        "stateId": "23"
    },
    {
        "id": "546",
        "cityName": "Ghaziabad",
        "stateId": "23"
    },
    {
        "id": "547",
        "cityName": "Hamirpur",
        "stateId": "23"
    },
    {
        "id": "548",
        "cityName": "Hardoi",
        "stateId": "23"
    },
    {
        "id": "549",
        "cityName": "Mahamaya Nagar",
        "stateId": "23"
    },
    {
        "id": "550",
        "cityName": "Jhansi",
        "stateId": "23"
    },
    {
        "id": "551",
        "cityName": "Jalaun",
        "stateId": "23"
    },
    {
        "id": "552",
        "cityName": "Jyotiba Phule Nagar",
        "stateId": "23"
    },
    {
        "id": "553",
        "cityName": "Jaunpur District",
        "stateId": "23"
    },
    {
        "id": "554",
        "cityName": "Kanpur Dehat",
        "stateId": "23"
    },
    {
        "id": "555",
        "cityName": "Kannauj",
        "stateId": "23"
    },
    {
        "id": "556",
        "cityName": "Kanpur Nagar",
        "stateId": "23"
    },
    {
        "id": "557",
        "cityName": "Kaushambi",
        "stateId": "23"
    },
    {
        "id": "558",
        "cityName": "Kushinagar",
        "stateId": "23"
    },
    {
        "id": "559",
        "cityName": "Lalitpur",
        "stateId": "23"
    },
    {
        "id": "560",
        "cityName": "Lakhimpur Kheri",
        "stateId": "23"
    },
    {
        "id": "561",
        "cityName": "Lucknow",
        "stateId": "23"
    },
    {
        "id": "562",
        "cityName": "Mau",
        "stateId": "23"
    },
    {
        "id": "563",
        "cityName": "Meerut",
        "stateId": "23"
    },
    {
        "id": "564",
        "cityName": "Maharajganj",
        "stateId": "23"
    },
    {
        "id": "565",
        "cityName": "Mahoba",
        "stateId": "23"
    },
    {
        "id": "566",
        "cityName": "Mirzapur",
        "stateId": "23"
    },
    {
        "id": "567",
        "cityName": "Moradabad",
        "stateId": "23"
    },
    {
        "id": "568",
        "cityName": "Mainpuri",
        "stateId": "23"
    },
    {
        "id": "569",
        "cityName": "Mathura",
        "stateId": "23"
    },
    {
        "id": "570",
        "cityName": "Muzaffarnagar",
        "stateId": "23"
    },
    {
        "id": "571",
        "cityName": "Pilibhit",
        "stateId": "23"
    },
    {
        "id": "572",
        "cityName": "Pratapgarh",
        "stateId": "23"
    },
    {
        "id": "573",
        "cityName": "Rampur",
        "stateId": "23"
    },
    {
        "id": "574",
        "cityName": "Rae Bareli",
        "stateId": "23"
    },
    {
        "id": "575",
        "cityName": "Saharanpur",
        "stateId": "23"
    },
    {
        "id": "576",
        "cityName": "Sitapur",
        "stateId": "23"
    },
    {
        "id": "577",
        "cityName": "Shahjahanpur",
        "stateId": "23"
    },
    {
        "id": "578",
        "cityName": "Sant Kabir Nagar",
        "stateId": "23"
    },
    {
        "id": "579",
        "cityName": "Siddharthnagar",
        "stateId": "23"
    },
    {
        "id": "580",
        "cityName": "Sonbhadra",
        "stateId": "23"
    },
    {
        "id": "581",
        "cityName": "Sant Ravidas Nagar",
        "stateId": "23"
    },
    {
        "id": "582",
        "cityName": "Sultanpur",
        "stateId": "23"
    },
    {
        "id": "583",
        "cityName": "Shravasti",
        "stateId": "23"
    },
    {
        "id": "584",
        "cityName": "Unnao",
        "stateId": "23"
    },
    {
        "id": "585",
        "cityName": "Varanasi",
        "stateId": "23"
    },
    {
        "id": "586",
        "cityName": "Birbhum",
        "stateId": "24"
    },
    {
        "id": "587",
        "cityName": "Bankura",
        "stateId": "24"
    },
    {
        "id": "588",
        "cityName": "Bardhaman",
        "stateId": "24"
    },
    {
        "id": "589",
        "cityName": "Darjeeling",
        "stateId": "24"
    },
    {
        "id": "590",
        "cityName": "Dakshin Dinajpur",
        "stateId": "24"
    },
    {
        "id": "591",
        "cityName": "Hooghly",
        "stateId": "24"
    },
    {
        "id": "592",
        "cityName": "Howrah",
        "stateId": "24"
    },
    {
        "id": "593",
        "cityName": "Jalpaiguri",
        "stateId": "24"
    },
    {
        "id": "594",
        "cityName": "Cooch Behar",
        "stateId": "24"
    },
    {
        "id": "595",
        "cityName": "Kolkata",
        "stateId": "24"
    },
    {
        "id": "596",
        "cityName": "Malda",
        "stateId": "24"
    },
    {
        "id": "597",
        "cityName": "Midnapore",
        "stateId": "24"
    },
    {
        "id": "598",
        "cityName": "Murshidabad",
        "stateId": "24"
    },
    {
        "id": "599",
        "cityName": "Nadia",
        "stateId": "24"
    },
    {
        "id": "600",
        "cityName": "North 24 Parganas",
        "stateId": "24"
    },
    {
        "id": "601",
        "cityName": "South 24 Parganas",
        "stateId": "24"
    },
    {
        "id": "602",
        "cityName": "Purulia",
        "stateId": "24"
    },
    {
        "id": "603",
        "cityName": "Uttar Dinajpur",
        "stateId": "24"
    }
]